44
6 99.3 158.5 223.4 293.5 377.7 451.4
6 18.3 23.7 35.9 46.2 61.9 90.3
5 108.9 118.6 129 147.4 153.7
3 165.3 173.6 209.9
4 231.7 254.8 258.5 278.7
5 315.1 329.9 338.9 356.6 362.9
3 394.7 428.1 441.3
3 458.4 470.6 481.6
6 3.4 7.6 7.8 8.5 12.4 15.7
3 18.6 21.3 21.9
3 23.8 31.4 34.9
5 37.8 37.9 38.5 38.7 42.8
5 53.1 55.2 56.2 58.8 58.9
7 66.5 71.3 72 73.5 76.5 77.3 80.6
4 91.5 94.5 97.6 98.8
4 99.5 105.9 107.9 107.9
3 116.2 118.1 118.3
4 120.8 121.5 124.1 125.2
3 144.5 146.5 146.7
4 148.7 149.8 151.2 151.4
4 154.9 157.2 157.5 157.6
3 161.2 162.9 163.5
3 167.4 169.8 172.1
4 173.9 180.6 183.7 198.8
4 213.6 216.7 220.1 220.2
7 224.2 224.7 227.6 228.5 228.7 229.4 229.4
6 235.4 235.9 243.4 250.2 252.3 253.7
3 254.9 255.2 256.1
6 263.9 266.6 269.1 272 272.1 273.9
5 279.2 281.4 282.9 284 289.5
7 293.6 296.6 304.4 305.8 306.3 308.9 314.8
3 318 324.7 329.7
5 332.7 334.4 336.6 337.4 338.5
7 338.9 346.4 348.9 352.6 353.4 353.7 354.4
5 359 359.1 360 360.3 362.7
4 364.4 370.8 372.9 376.8
3 381.2 391.5 393.6
5 397 402.2 414.2 414.7 417
5 429.3 436.6 438.2 439.1 440
7 443.8 444.8 446.2 447.4 448.8 449 449.7
3 454.1 456.1 457.2
4 459.9 463.5 466.4 466.7
5 472.9 473.5 477 477.6 481.1
6 485.5 485.8 489.2 489.7 494 496.6
